…
The top levels are specific: “no plans to look for work” (JobPlans), “no
formal” education, “once without authorization” (PriorEntry), “fluent
English”. These are the attribute levels that drive choices — not the
attributes as aggregated categories.

The full results table is available as a tibble:

``` r

rf$results
#> # A tibble: 50 × 9
#>     rank attribute       level       mda   mdg root_pct class_0 class_1 var_name
#>    <int> <chr>           <chr>     <dbl> <dbl>    <dbl>   <dbl>   <dbl> <chr>   
#>  1     1 JobPlans        no plans… 13.5   28.2     15.4  12.3      7.25 JobPlan…
#>  2     2 JobPlans        contract…  8.18  23.0     11.2   3.70     6.98 JobPlan…
#>  3     3 Education       no formal  7.87  18.7      7.4   8.04     2.38 Educati…
#>  4     4 PriorEntry      once w/o…  7.42  22.9     10.4   6.87     3.66 PriorEn…
#>  5     5 LanguageSkills  fluent E…  6.16  22.3      8.2   2.71     6.00 Languag…
#>  6     6 PriorEntry      once as …  4.83  20.3      2.4   1.61     5.25 PriorEn…
#>  7     7 Education       college …  4.75  18.9      6.4   0.153    6.16 Educati…
#>  8     8 LanguageSkills  used int…  4.66  20.2      5.6   4.91     1.37 Languag…
#>  9     9 CountryofOrigin Iraq       4.15  17.1      4.6   3.53     2.15 Country…
#> 10    10 Job             janitor    3.87  18.0      3     2.09     3.36 Jobjani…
#> # ℹ 40 more rows
```
…
